{
  "prepare_queue": {
    "installed": [],
    "uninstalled": []
  },
  "config_munge": {
    "files": {
      "config.xml": {
        "parents": {
          "/*": [
            {
              "xml": "<feature name=\"CordovaHttpPlugin\"><param name=\"browser-package\" value=\"CordovaHttpPlugin\" /></feature>",
              "count": 1
            }
          ]
        }
      }
    }
  },
  "installed_plugins": {
    "cordova-plugin-network-information": {
      "PACKAGE_NAME": "io.cordova.hellocordova"
    },
    "cordova-sqlite-storage": {
      "PACKAGE_NAME": "io.cordova.hellocordova"
    },
    "cordova-plugin-file": {
      "PACKAGE_NAME": "io.cordova.hellocordova"
    },
    "cordova-plugin-advanced-http": {
      "ANDROIDBLACKLISTSECURESOCKETPROTOCOLS": "SSLv3,TLSv1",
      "PACKAGE_NAME": "io.cordova.hellocordova"
    }
  },
  "dependent_plugins": {},
  "modules": [
    {
      "file": "plugins/cordova-plugin-network-information/www/network.js",
      "id": "cordova-plugin-network-information.network",
      "pluginId": "cordova-plugin-network-information",
      "clobbers": [
        "navigator.connection"
      ]
    },
    {
      "file": "plugins/cordova-plugin-network-information/www/Connection.js",
      "id": "cordova-plugin-network-information.Connection",
      "pluginId": "cordova-plugin-network-information",
      "clobbers": [
        "Connection"
      ]
    },
    {
      "file": "plugins/cordova-plugin-network-information/src/browser/network.js",
      "id": "cordova-plugin-network-information.NetworkInfoProxy",
      "pluginId": "cordova-plugin-network-information",
      "runs": true
    },
    {
      "file": "plugins/cordova-sqlite-storage/www/SQLitePlugin.js",
      "id": "cordova-sqlite-storage.SQLitePlugin",
      "pluginId": "cordova-sqlite-storage",
      "clobbers": [
        "SQLitePlugin"
      ]
    },
    {
      "file": "plugins/cordova-sqlite-storage/node_modules/cordova-sqlite-storage-dependencies/sql-asm-memory-growth.js",
      "id": "cordova-sqlite-storage.sql",
      "pluginId": "cordova-sqlite-storage",
      "runs": true
    },
    {
      "file": "plugins/cordova-sqlite-storage/src/browser/SQLiteProxy.js",
      "id": "cordova-sqlite-storage.SQLiteProxy",
      "pluginId": "cordova-sqlite-storage",
      "runs": true
    },
    {
      "file": "plugins/cordova-plugin-file/www/DirectoryEntry.js",
      "id": "cordova-plugin-file.DirectoryEntry",
      "pluginId": "cordova-plugin-file",
      "clobbers": [
        "window.DirectoryEntry"
      ]
    },
    {
      "file": "plugins/cordova-plugin-file/www/DirectoryReader.js",
      "id": "cordova-plugin-file.DirectoryReader",
      "pluginId": "cordova-plugin-file",
      "clobbers": [
        "window.DirectoryReader"
      ]
    },
    {
      "file": "plugins/cordova-plugin-file/www/Entry.js",
      "id": "cordova-plugin-file.Entry",
      "pluginId": "cordova-plugin-file",
      "clobbers": [
        "window.Entry"
      ]
    },
    {
      "file": "plugins/cordova-plugin-file/www/File.js",
      "id": "cordova-plugin-file.File",
      "pluginId": "cordova-plugin-file",
      "clobbers": [
        "window.File"
      ]
    },
    {
      "file": "plugins/cordova-plugin-file/www/FileEntry.js",
      "id": "cordova-plugin-file.FileEntry",
      "pluginId": "cordova-plugin-file",
      "clobbers": [
        "window.FileEntry"
      ]
    },
    {
      "file": "plugins/cordova-plugin-file/www/FileError.js",
      "id": "cordova-plugin-file.FileError",
      "pluginId": "cordova-plugin-file",
      "clobbers": [
        "window.FileError"
      ]
    },
    {
      "file": "plugins/cordova-plugin-file/www/FileReader.js",
      "id": "cordova-plugin-file.FileReader",
      "pluginId": "cordova-plugin-file",
      "clobbers": [
        "window.FileReader"
      ]
    },
    {
      "file": "plugins/cordova-plugin-file/www/FileSystem.js",
      "id": "cordova-plugin-file.FileSystem",
      "pluginId": "cordova-plugin-file",
      "clobbers": [
        "window.FileSystem"
      ]
    },
    {
      "file": "plugins/cordova-plugin-file/www/FileUploadOptions.js",
      "id": "cordova-plugin-file.FileUploadOptions",
      "pluginId": "cordova-plugin-file",
      "clobbers": [
        "window.FileUploadOptions"
      ]
    },
    {
      "file": "plugins/cordova-plugin-file/www/FileUploadResult.js",
      "id": "cordova-plugin-file.FileUploadResult",
      "pluginId": "cordova-plugin-file",
      "clobbers": [
        "window.FileUploadResult"
      ]
    },
    {
      "file": "plugins/cordova-plugin-file/www/FileWriter.js",
      "id": "cordova-plugin-file.FileWriter",
      "pluginId": "cordova-plugin-file",
      "clobbers": [
        "window.FileWriter"
      ]
    },
    {
      "file": "plugins/cordova-plugin-file/www/Flags.js",
      "id": "cordova-plugin-file.Flags",
      "pluginId": "cordova-plugin-file",
      "clobbers": [
        "window.Flags"
      ]
    },
    {
      "file": "plugins/cordova-plugin-file/www/LocalFileSystem.js",
      "id": "cordova-plugin-file.LocalFileSystem",
      "pluginId": "cordova-plugin-file",
      "clobbers": [
        "window.LocalFileSystem"
      ],
      "merges": [
        "window"
      ]
    },
    {
      "file": "plugins/cordova-plugin-file/www/Metadata.js",
      "id": "cordova-plugin-file.Metadata",
      "pluginId": "cordova-plugin-file",
      "clobbers": [
        "window.Metadata"
      ]
    },
    {
      "file": "plugins/cordova-plugin-file/www/ProgressEvent.js",
      "id": "cordova-plugin-file.ProgressEvent",
      "pluginId": "cordova-plugin-file",
      "clobbers": [
        "window.ProgressEvent"
      ]
    },
    {
      "file": "plugins/cordova-plugin-file/www/fileSystems.js",
      "id": "cordova-plugin-file.fileSystems",
      "pluginId": "cordova-plugin-file"
    },
    {
      "file": "plugins/cordova-plugin-file/www/requestFileSystem.js",
      "id": "cordova-plugin-file.requestFileSystem",
      "pluginId": "cordova-plugin-file",
      "clobbers": [
        "window.requestFileSystem"
      ]
    },
    {
      "file": "plugins/cordova-plugin-file/www/resolveLocalFileSystemURI.js",
      "id": "cordova-plugin-file.resolveLocalFileSystemURI",
      "pluginId": "cordova-plugin-file",
      "merges": [
        "window"
      ]
    },
    {
      "file": "plugins/cordova-plugin-file/www/browser/isChrome.js",
      "id": "cordova-plugin-file.isChrome",
      "pluginId": "cordova-plugin-file",
      "runs": true
    },
    {
      "file": "plugins/cordova-plugin-file/www/browser/Preparing.js",
      "id": "cordova-plugin-file.Preparing",
      "pluginId": "cordova-plugin-file",
      "runs": true
    },
    {
      "file": "plugins/cordova-plugin-file/src/browser/FileProxy.js",
      "id": "cordova-plugin-file.browserFileProxy",
      "pluginId": "cordova-plugin-file",
      "runs": true
    },
    {
      "file": "plugins/cordova-plugin-file/www/fileSystemPaths.js",
      "id": "cordova-plugin-file.fileSystemPaths",
      "pluginId": "cordova-plugin-file",
      "merges": [
        "cordova"
      ],
      "runs": true
    },
    {
      "file": "plugins/cordova-plugin-file/www/browser/FileSystem.js",
      "id": "cordova-plugin-file.firefoxFileSystem",
      "pluginId": "cordova-plugin-file",
      "merges": [
        "window.FileSystem"
      ]
    },
    {
      "file": "plugins/cordova-plugin-advanced-http/www/cookie-handler.js",
      "id": "cordova-plugin-advanced-http.cookie-handler",
      "pluginId": "cordova-plugin-advanced-http"
    },
    {
      "file": "plugins/cordova-plugin-advanced-http/www/dependency-validator.js",
      "id": "cordova-plugin-advanced-http.dependency-validator",
      "pluginId": "cordova-plugin-advanced-http"
    },
    {
      "file": "plugins/cordova-plugin-advanced-http/www/error-codes.js",
      "id": "cordova-plugin-advanced-http.error-codes",
      "pluginId": "cordova-plugin-advanced-http"
    },
    {
      "file": "plugins/cordova-plugin-advanced-http/www/global-configs.js",
      "id": "cordova-plugin-advanced-http.global-configs",
      "pluginId": "cordova-plugin-advanced-http"
    },
    {
      "file": "plugins/cordova-plugin-advanced-http/www/helpers.js",
      "id": "cordova-plugin-advanced-http.helpers",
      "pluginId": "cordova-plugin-advanced-http"
    },
    {
      "file": "plugins/cordova-plugin-advanced-http/www/js-util.js",
      "id": "cordova-plugin-advanced-http.js-util",
      "pluginId": "cordova-plugin-advanced-http"
    },
    {
      "file": "plugins/cordova-plugin-advanced-http/www/local-storage-store.js",
      "id": "cordova-plugin-advanced-http.local-storage-store",
      "pluginId": "cordova-plugin-advanced-http"
    },
    {
      "file": "plugins/cordova-plugin-advanced-http/www/lodash.js",
      "id": "cordova-plugin-advanced-http.lodash",
      "pluginId": "cordova-plugin-advanced-http"
    },
    {
      "file": "plugins/cordova-plugin-advanced-http/www/messages.js",
      "id": "cordova-plugin-advanced-http.messages",
      "pluginId": "cordova-plugin-advanced-http"
    },
    {
      "file": "plugins/cordova-plugin-advanced-http/www/ponyfills.js",
      "id": "cordova-plugin-advanced-http.ponyfills",
      "pluginId": "cordova-plugin-advanced-http"
    },
    {
      "file": "plugins/cordova-plugin-advanced-http/www/public-interface.js",
      "id": "cordova-plugin-advanced-http.public-interface",
      "pluginId": "cordova-plugin-advanced-http"
    },
    {
      "file": "plugins/cordova-plugin-advanced-http/www/umd-tough-cookie.js",
      "id": "cordova-plugin-advanced-http.tough-cookie",
      "pluginId": "cordova-plugin-advanced-http"
    },
    {
      "file": "plugins/cordova-plugin-advanced-http/www/url-util.js",
      "id": "cordova-plugin-advanced-http.url-util",
      "pluginId": "cordova-plugin-advanced-http"
    },
    {
      "file": "plugins/cordova-plugin-advanced-http/www/advanced-http.js",
      "id": "cordova-plugin-advanced-http.http",
      "pluginId": "cordova-plugin-advanced-http",
      "clobbers": [
        "cordova.plugin.http"
      ]
    },
    {
      "file": "plugins/cordova-plugin-advanced-http/src/browser/cordova-http-plugin.js",
      "id": "cordova-plugin-advanced-http.http-proxy",
      "pluginId": "cordova-plugin-advanced-http",
      "runs": true
    }
  ],
  "plugin_metadata": {
    "cordova-plugin-network-information": "3.0.0",
    "cordova-sqlite-storage": "6.0.0",
    "cordova-plugin-file": "6.0.2",
    "cordova-plugin-advanced-http": "3.2.2"
  }
}
